com\moola\note\config\CustomConfig.class
com\moola\note\service\NoteService.class
com\moola\NoteApplication.class
com\moola\note\service\impl\NoteServiceImpl.class
com\moola\note\controller\NoteController.class
