D:\Thanh\Sources\moola\persistence\src\main\java\com\gem\dao\NoteDAO.java
D:\Thanh\Sources\moola\persistence\src\main\java\com\gem\dao\impl\NoteDAOImpl.java
D:\Thanh\Sources\moola\persistence\src\main\java\com\gem\config\JpaRepositoryConfig.java
